\relax 
\@writefile{lol}{\contentsline {lstlisting}{\numberline {1}A simple constitutive relation}{1}\protected@file@percent }
\@writefile{toc}{\contentsline {section}{\numberline {1}Test A Class}{1}\protected@file@percent }
\@writefile{lol}{\contentsline {lstlisting}{\numberline {2}A simple Python class}{1}\protected@file@percent }
