\relax 
\@writefile{toc}{\contentsline {section}{\numberline {1}Description of Technical Tasks}{1}\protected@file@percent }
\@writefile{toc}{\contentsline {section}{\numberline {2}High-Level Time Estimation}{2}\protected@file@percent }
\@writefile{toc}{\contentsline {section}{\numberline {3}Sub-Task Time Estimation}{2}\protected@file@percent }
\@writefile{toc}{\contentsline {subsection}{\numberline {3.1}Verification System}{2}\protected@file@percent }
\@writefile{toc}{\contentsline {subsection}{\numberline {3.2}Benchmarking System}{3}\protected@file@percent }
\@writefile{toc}{\contentsline {section}{\numberline {4}Description of Risks}{3}\protected@file@percent }
